combinational_circuits/fulladder/fadd_s.vcd
$date
	Sat Sep 06 09:47:08 2025
$end
$version
	Icarus Verilog
$end
$timescale
	1ps
$end
$scope module fadd_tb $end
$var wire 1 ! s $end
$var wire 1 " c $end
$var reg 1 # a $end
$var reg 1 $ b $end
$var reg 1 % ci $end
$scope module dut $end
$var wire 1 # a $end
$var wire 1 $ b $end
$var wire 1 " c $end
$var wire 1 % ci $end
$var wire 1 ! s $end
$var wire 1 & w1 $end
$var wire 1 ' w2 $end
$var wire 1 ( w3 $end
$upscope $end
$upscope $end
$enddefinitions $end
$comment Show the parameter values. $end
$dumpall
$end
#0
$dumpvars
0(
0'
0&
0%
0$
0#
0"
0!
$end
#10000
1!
1%
#20000
1&
0%
1$
#30000
1"
0!
1(
1%
#40000
0"
1!
0(
0%
0$
1#
#50000
1"
0!
1(
1%
#60000
0(
0&
1'
0%
1$
#70000
1!
1%
